Epidemic situation in Egypt | Karina Zou's Blog
…
Brazil

3997865

India

3853406

Egypt

99280

The latest number of confirmed cases, deaths, and recoveries in Egypt.

## # A tibble: 225 x 4
##    date       confirmed death recovered
##    <date>         <dbl> <dbl>     <dbl>
##  1 2020-09-02       165    21       798
##  2 2020-09-01       176    19       899
##  3 2020-08-31       212    22       809
##  4 2020-08-30       230    23       818
##  5 2020-08-29       212    14       883
##  6 2020-08-28       223    20       807
##  7 2020-08-27       237    25       899
##  8 2020-08-26       206    19       996
##  9 2020-08-25       141    18       900
## 10 2020-08-24       138    18       890
## # ... with 215 more rows
…
